[gd_scene load_steps=2 format=2]

[ext_resource path="res://src/PlayerDetection.gd" type="Script" id=1]

[node name="PlayerDetection" type="Area2D"]
collision_layer = 0
collision_mask = 2
script = ExtResource( 1 )

[node name="CollisionShape2D" type="CollisionShape2D" parent="."]
